%YAML 1.1
%TAG !u! tag:unity3d.com,2011:
--- !u!162 &1
EditorUserSettings:
  m_ObjectHideFlags: 0
  serializedVersion: 4
  m_ConfigSettings:
    RecentlyUsedSceneGuid-0:
      value: 0552560754045d0b0f0f5a2341705a4415161b7f297b23367a794b61b6b1623b
      flags: 0
    RecentlyUsedSceneGuid-1:
      value: 50000d5406065e0a09590a7b44205944424f4c7c7e7125682e2d1832e4b7633d
      flags: 0
    RecentlyUsedSceneGuid-2:
      value: 5b0802035707080d55595f7b4775594443164c7e7e2c276374714d31b4b9613e
      flags: 0
    RecentlyUsedSceneGuid-3:
      value: 515250075c0c595e5f5a5e71122159444e4e4a2f7a7d7f602f284d66b4b76661
      flags: 0
    RecentlyUsedSceneGuid-4:
      value: 0609075107575958595c5b2447710d44474e197978297e62292a4966e1e46261
      flags: 0
    RecentlyUsedSceneGuid-5:
      value: 5055030251055b0d5c0c0973417b0b4413151a7b2f79736429794a6bbbb46369
      flags: 0
    RecentlyUsedSceneGuid-6:
      value: 0104020050045d0c545f0a741475094442161a287b717261797c4b6bb4e26668
      flags: 0
    RecentlyUsedSceneGuid-7:
      value: 055501520750595d5c5f0d70487b07444e1540737e2e72687a2c4567e7e2676f
      flags: 0
    RecentlyUsedSceneGuid-8:
      value: 5606500753560b0e5f0d552316765944134e407e7e7920692b2a4c67e6e16d3a
      flags: 0
    RecentlyUsedSceneGuid-9:
      value: 0204565f030d0f5f5f0f0f2640700844454f1929747d226274784a67e1b1636d
      flags: 0
    RecentlyUsedScenePath-0:
      value: 2242470311464609294e416223205650301e581924272924283b5d7ea2c1272be7f376d9e63934731811fc39102d4f2afc031d12
      flags: 0
    RecentlyUsedScenePath-1:
      value: 2242470311464609294e416223205650301e581924272924283b5d7ea2c1272be7f376d9e63934730a03e22c083b3e0cf10f070ec928020a030ffe1a14ed5e061fcc0cdc
      flags: 0
    RecentlyUsedScenePath-2:
      value: 2242470311464609294e416223205650301e581924272924283b5d7ea2c1272be7f376d9e63934730a03e22c083b3e0cf10f070ec92e040e1c07f81d5fea1e1a05dc
      flags: 0
    RecentlyUsedScenePath-3:
      value: 22424703114646680e0b0227036c6c111b07142f1f2b233e2867083debf42d
      flags: 0
    vcSharedLogLevel:
      value: 0d5e400f0650
      flags: 0
  m_VCAutomaticAdd: 1
  m_VCDebugCom: 0
  m_VCDebugCmd: 0
  m_VCDebugOut: 0
  m_SemanticMergeMode: 2
  m_DesiredImportWorkerCount: 2
  m_StandbyImportWorkerCount: 2
  m_IdleImportWorkerShutdownDelay: 60000
  m_VCShowFailedCheckout: 1
  m_VCOverwriteFailedCheckoutAssets: 1
  m_VCProjectOverlayIcons: 1
  m_VCHierarchyOverlayIcons: 1
  m_VCOtherOverlayIcons: 1
  m_VCAllowAsyncUpdate: 1
  m_ArtifactGarbageCollection: 1
