Library\Bee\artifacts\mvdfrm\Unity.Services.Core.Configuration.ref.dll_9A0B0462DB47136F.mvfrm
Library\Bee\artifacts\mvdfrm\Unity.Services.Core.Internal.ref.dll_A02B3542C15F550A.mvfrm
Library\Bee\artifacts\mvdfrm\Unity.Services.Core.ref.dll_131AC9C5EC6E6517.mvfrm
Library\Bee\artifacts\mvdfrm\UnityEditor.TestRunner.ref.dll_193EC4CE382CBFB3.mvfrm
Library\Bee\artifacts\mvdfrm\UnityEditor.UI.ref.dll_4C98D3F7040CD4F5.mvfrm
Library\Bee\artifacts\mvdfrm\UnityEngine.TestRunner.ref.dll_E55D0F7C63F01D9E.mvfrm
Library\Bee\artifacts\mvdfrm\UnityEngine.UI.ref.dll_08FEAA520A2EFD60.mvfrm
Library\Bee\artifacts\mvdfrm\UnityEditor.Graphs.dll_E3AE8C270CB1BCA0.mvfrm
Library\Bee\artifacts\mvdfrm\UnityEditor.CoreModule.dll_134C3EFB31C9206E.mvfrm
Library\Bee\artifacts\mvdfrm\UnityEditor.DeviceSimulatorModule.dll_0DA01C493B0DDAB3.mvfrm
Library\Bee\artifacts\mvdfrm\UnityEditor.DiagnosticsModule.dll_DDA95D0494C7A841.mvfrm
Library\Bee\artifacts\mvdfrm\UnityEditor.dll_87B7A742A52A5DC7.mvfrm
Library\Bee\artifacts\mvdfrm\UnityEditor.GraphViewModule.dll_81DB18A2A438CDF8.mvfrm
Library\Bee\artifacts\mvdfrm\UnityEditor.PackageManagerUIModule.dll_F84814F46417F04A.mvfrm
Library\Bee\artifacts\mvdfrm\UnityEditor.QuickSearchModule.dll_68B8DE11ED9EA49A.mvfrm
Library\Bee\artifacts\mvdfrm\UnityEditor.SceneTemplateModule.dll_A59FF5790B9FDA5B.mvfrm
Library\Bee\artifacts\mvdfrm\UnityEditor.TextCoreFontEngineModule.dll_CE03EEE8A1C0DE2C.mvfrm
Library\Bee\artifacts\mvdfrm\UnityEditor.TextCoreTextEngineModule.dll_15EC255A3144974A.mvfrm
Library\Bee\artifacts\mvdfrm\UnityEditor.UIBuilderModule.dll_D663C5BF16F1472C.mvfrm
Library\Bee\artifacts\mvdfrm\UnityEditor.UIElementsModule.dll_A11ECDF9565604EA.mvfrm
Library\Bee\artifacts\mvdfrm\UnityEditor.UIElementsSamplesModule.dll_C018666A23099923.mvfrm
Library\Bee\artifacts\mvdfrm\UnityEditor.UIServiceModule.dll_0F55D72200289746.mvfrm
Library\Bee\artifacts\mvdfrm\UnityEditor.UnityConnectModule.dll_67BB105E1AE00624.mvfrm
Library\Bee\artifacts\mvdfrm\UnityEngine.AccessibilityModule.dll_D84561100C1601F8.mvfrm
Library\Bee\artifacts\mvdfrm\UnityEngine.AIModule.dll_780CE3B39CB22D02.mvfrm
Library\Bee\artifacts\mvdfrm\UnityEngine.AndroidJNIModule.dll_1F67B6CC9F7573C0.mvfrm
Library\Bee\artifacts\mvdfrm\UnityEngine.AnimationModule.dll_506094CB7E95A29E.mvfrm
Library\Bee\artifacts\mvdfrm\UnityEngine.ARModule.dll_317FA8B6F9CF8BCB.mvfrm
Library\Bee\artifacts\mvdfrm\UnityEngine.AssetBundleModule.dll_ACA211035005598C.mvfrm
Library\Bee\artifacts\mvdfrm\UnityEngine.AudioModule.dll_DDDE7E3EC2702C10.mvfrm
Library\Bee\artifacts\mvdfrm\UnityEngine.ClothModule.dll_44C6DB399C8D0AF4.mvfrm
Library\Bee\artifacts\mvdfrm\UnityEngine.ClusterInputModule.dll_E7578573CC67D8EA.mvfrm
Library\Bee\artifacts\mvdfrm\UnityEngine.ClusterRendererModule.dll_134CDEBAAAC8E837.mvfrm
Library\Bee\artifacts\mvdfrm\UnityEngine.CoreModule.dll_366D124DD9CE8B99.mvfrm
Library\Bee\artifacts\mvdfrm\UnityEngine.CrashReportingModule.dll_1100D018A215D8D1.mvfrm
Library\Bee\artifacts\mvdfrm\UnityEngine.DirectorModule.dll_A8CB520A61C077F6.mvfrm
Library\Bee\artifacts\mvdfrm\UnityEngine.dll_BA5BEE1B039DEAAC.mvfrm
Library\Bee\artifacts\mvdfrm\UnityEngine.DSPGraphModule.dll_AE1CB373D4214917.mvfrm
Library\Bee\artifacts\mvdfrm\UnityEngine.GameCenterModule.dll_49B500E765B664B1.mvfrm
Library\Bee\artifacts\mvdfrm\UnityEngine.GIModule.dll_10492CC13861151C.mvfrm
Library\Bee\artifacts\mvdfrm\UnityEngine.GridModule.dll_13DE2E3BF2232190.mvfrm
Library\Bee\artifacts\mvdfrm\UnityEngine.HotReloadModule.dll_D1A952D159C8BE20.mvfrm
Library\Bee\artifacts\mvdfrm\UnityEngine.ImageConversionModule.dll_7F3EDC6B2CEDA02B.mvfrm
Library\Bee\artifacts\mvdfrm\UnityEngine.IMGUIModule.dll_163E1DA588A1BFF1.mvfrm
Library\Bee\artifacts\mvdfrm\UnityEngine.InputLegacyModule.dll_3DE72C21E7F70F7D.mvfrm
Library\Bee\artifacts\mvdfrm\UnityEngine.InputModule.dll_445445EF38A850B4.mvfrm
Library\Bee\artifacts\mvdfrm\UnityEngine.JSONSerializeModule.dll_385CEA4C0B516282.mvfrm
Library\Bee\artifacts\mvdfrm\UnityEngine.LocalizationModule.dll_25A44FC663E3CBE3.mvfrm
Library\Bee\artifacts\mvdfrm\UnityEngine.NVIDIAModule.dll_A54CA6B586471D25.mvfrm
Library\Bee\artifacts\mvdfrm\UnityEngine.ParticleSystemModule.dll_641319651027645F.mvfrm
Library\Bee\artifacts\mvdfrm\UnityEngine.PerformanceReportingModule.dll_C3D3148D3A35F958.mvfrm
Library\Bee\artifacts\mvdfrm\UnityEngine.Physics2DModule.dll_9D0684BC1F929A33.mvfrm
Library\Bee\artifacts\mvdfrm\UnityEngine.PhysicsModule.dll_10CCA2F1008CF8E1.mvfrm
Library\Bee\artifacts\mvdfrm\UnityEngine.ProfilerModule.dll_DB118B40FB19FF03.mvfrm
Library\Bee\artifacts\mvdfrm\UnityEngine.RuntimeInitializeOnLoadManagerInitializerModule.dll_35BFB97F6AFCF0FC.mvfrm
Library\Bee\artifacts\mvdfrm\UnityEngine.ScreenCaptureModule.dll_524497D11FBD8EE4.mvfrm
Library\Bee\artifacts\mvdfrm\UnityEngine.SharedInternalsModule.dll_03501B40A41B9B7B.mvfrm
Library\Bee\artifacts\mvdfrm\UnityEngine.SpriteMaskModule.dll_32E173778725FA2B.mvfrm
Library\Bee\artifacts\mvdfrm\UnityEngine.SpriteShapeModule.dll_C6033E5E05A79196.mvfrm
Library\Bee\artifacts\mvdfrm\UnityEngine.StreamingModule.dll_04F5821BCE1D59DC.mvfrm
Library\Bee\artifacts\mvdfrm\UnityEngine.SubstanceModule.dll_E1A09665197057EA.mvfrm
Library\Bee\artifacts\mvdfrm\UnityEngine.SubsystemsModule.dll_9D8ED9D9556DE23E.mvfrm
Library\Bee\artifacts\mvdfrm\UnityEngine.TerrainModule.dll_2B131E5FD64B41CF.mvfrm
Library\Bee\artifacts\mvdfrm\UnityEngine.TerrainPhysicsModule.dll_648DC238296A5EEC.mvfrm
Library\Bee\artifacts\mvdfrm\UnityEngine.TextCoreFontEngineModule.dll_4C636A3BB4BE9CF7.mvfrm
Library\Bee\artifacts\mvdfrm\UnityEngine.TextCoreTextEngineModule.dll_944BA0AD44425615.mvfrm
Library\Bee\artifacts\mvdfrm\UnityEngine.TextRenderingModule.dll_7B8409DBD6F50ED9.mvfrm
Library\Bee\artifacts\mvdfrm\UnityEngine.TilemapModule.dll_CA0F85E0EE0822D8.mvfrm
Library\Bee\artifacts\mvdfrm\UnityEngine.TLSModule.dll_1E42FF68F450A975.mvfrm
Library\Bee\artifacts\mvdfrm\UnityEngine.UIElementsModule.dll_A1CD3B41589A1E35.mvfrm
Library\Bee\artifacts\mvdfrm\UnityEngine.UIElementsNativeModule.dll_42C1C989D590606C.mvfrm
Library\Bee\artifacts\mvdfrm\UnityEngine.UIModule.dll_738081E0F8F932AE.mvfrm
Library\Bee\artifacts\mvdfrm\UnityEngine.UmbraModule.dll_58B32A574F96D783.mvfrm
Library\Bee\artifacts\mvdfrm\UnityEngine.UNETModule.dll_C9135A3726DD8112.mvfrm
Library\Bee\artifacts\mvdfrm\UnityEngine.UnityAnalyticsCommonModule.dll_5F11D1D1541E97B6.mvfrm
Library\Bee\artifacts\mvdfrm\UnityEngine.UnityAnalyticsModule.dll_83B28A2EBC4EB65B.mvfrm
Library\Bee\artifacts\mvdfrm\UnityEngine.UnityConnectModule.dll_551A946D156806CF.mvfrm
Library\Bee\artifacts\mvdfrm\UnityEngine.UnityCurlModule.dll_837D35FCEEA9948B.mvfrm
Library\Bee\artifacts\mvdfrm\UnityEngine.UnityTestProtocolModule.dll_7BDB1C5C7D04EE79.mvfrm
Library\Bee\artifacts\mvdfrm\UnityEngine.UnityWebRequestAssetBundleModule.dll_A9BACE35FB4FA56C.mvfrm
Library\Bee\artifacts\mvdfrm\UnityEngine.UnityWebRequestAudioModule.dll_3BCF686BC0A0C3F0.mvfrm
Library\Bee\artifacts\mvdfrm\UnityEngine.UnityWebRequestModule.dll_90DDE41537E23AAA.mvfrm
Library\Bee\artifacts\mvdfrm\UnityEngine.UnityWebRequestTextureModule.dll_90FA7FA18C2C37C5.mvfrm
Library\Bee\artifacts\mvdfrm\UnityEngine.UnityWebRequestWWWModule.dll_5F0DE60934021281.mvfrm
Library\Bee\artifacts\mvdfrm\UnityEngine.VehiclesModule.dll_208E4B89DBEA4791.mvfrm
Library\Bee\artifacts\mvdfrm\UnityEngine.VFXModule.dll_9F2197D7CABE12E2.mvfrm
Library\Bee\artifacts\mvdfrm\UnityEngine.VideoModule.dll_02E802A9850247B5.mvfrm
Library\Bee\artifacts\mvdfrm\UnityEngine.VirtualTexturingModule.dll_674E7DF8AE3EE0F7.mvfrm
Library\Bee\artifacts\mvdfrm\UnityEngine.VRModule.dll_C652A8669AB3B826.mvfrm
Library\Bee\artifacts\mvdfrm\UnityEngine.WindModule.dll_ACBBED766B050A02.mvfrm
Library\Bee\artifacts\mvdfrm\UnityEngine.XRModule.dll_F9116B6B23EE0584.mvfrm
Library\Bee\artifacts\mvdfrm\UnityEditor.WindowsStandalone.Extensions.dll_A637F8C9F9945612.mvfrm
Library\Bee\artifacts\mvdfrm\Unity.Burst.Cecil.dll_8B5AFBFE0D4D672D.mvfrm
Library\Bee\artifacts\mvdfrm\Unity.Burst.Cecil.Mdb.dll_395CD34791E48DAA.mvfrm
Library\Bee\artifacts\mvdfrm\Unity.Burst.Cecil.Pdb.dll_50AF4BB710998F2D.mvfrm
Library\Bee\artifacts\mvdfrm\Unity.Burst.Cecil.Rocks.dll_1D279969D77266ED.mvfrm
Library\Bee\artifacts\mvdfrm\Unity.Burst.Unsafe.dll_188915C43A14B256.mvfrm
Library\Bee\artifacts\mvdfrm\Unity.Plastic.Antlr3.Runtime.dll_3E5B91644EBBC32D.mvfrm
Library\Bee\artifacts\mvdfrm\Unity.Plastic.Newtonsoft.Json.dll_21450FA9FDDB6CB8.mvfrm